^C:\USERS\JOSEP\DOCUMENTS\VISUAL STUDIO 2010\PROJECTS\CUDARAYTRACER\CUDARAYTRACER\DEBUG\CUDARAYTRACER.EXE.EMBED.MANIFEST.RES|C:\USERS\JOSEP\DOCUMENTS\VISUAL STUDIO 2010\PROJECTS\CUDARAYTRACER\CUDARAYTRACER\DEBUG\KERNEL.CU.OBJ
C:\PROGRAM FILES\NVIDIA GPU COMPUTING TOOLKIT\CUDA\V5.5\LIB\WIN32\CUDART.LIB
C:\PROGRAM FILES (X86)\MICROSOFT SDKS\WINDOWS\V7.0A\LIB\KERNEL32.LIB
C:\PROGRAM FILES (X86)\MICROSOFT SDKS\WINDOWS\V7.0A\LIB\USER32.LIB
C:\PROGRAM FILES (X86)\MICROSOFT SDKS\WINDOWS\V7.0A\LIB\GDI32.LIB
C:\PROGRAM FILES (X86)\MICROSOFT SDKS\WINDOWS\V7.0A\LIB\WINSPOOL.LIB
C:\PROGRAM FILES (X86)\MICROSOFT SDKS\WINDOWS\V7.0A\LIB\COMDLG32.LIB
C:\PROGRAM FILES (X86)\MICROSOFT SDKS\WINDOWS\V7.0A\LIB\ADVAPI32.LIB
C:\PROGRAM FILES (X86)\MICROSOFT SDKS\WINDOWS\V7.0A\LIB\SHELL32.LIB
C:\PROGRAM FILES (X86)\MICROSOFT SDKS\WINDOWS\V7.0A\LIB\OLE32.LIB
C:\PROGRAM FILES (X86)\MICROSOFT SDKS\WINDOWS\V7.0A\LIB\OLEAUT32.LIB
C:\PROGRAM FILES (X86)\MICROSOFT SDKS\WINDOWS\V7.0A\LIB\UUID.LIB
C:\PROGRAM FILES (X86)\MICROSOFT SDKS\WINDOWS\V7.0A\LIB\ODBC32.LIB
C:\PROGRAM FILES (X86)\MICROSOFT SDKS\WINDOWS\V7.0A\LIB\ODBCCP32.LIB
C:\GLFW\LIB-MSVC100\GLFW3.LIB
C:\PROGRAM FILES (X86)\MICROSOFT SDKS\WINDOWS\V7.0A\LIB\OPENGL32.LIB
C:\PROGRAM FILES (X86)\MICROSOFT SDKS\WINDOWS\V7.0A\LIB\GLU32.LIB
C:\GLEW\LIB\GLEW32S.LIB
C:\FREEIMAGE\DIST\FREEIMAGE.LIB
C:\USERS\JOSEP\DOCUMENTS\VISUAL STUDIO 2010\PROJECTS\CUDARAYTRACER\CUDARAYTRACER\DEBUG\KERNEL.CU.OBJ
C:\USERS\JOSEP\DOCUMENTS\VISUAL STUDIO 2010\PROJECTS\CUDARAYTRACER\CUDARAYTRACER\DEBUG\CUDARAYTRACER.EXE.EMBED.MANIFEST.RES
C:\WINDOWS\GLOBALIZATION\SORTING\SORTDEFAULT.NLS
C:\PROGRAM FILES (X86)\MICROSOFT VISUAL STUDIO 10.0\VC\LIB\MSVCPRTD.LIB
C:\PROGRAM FILES (X86)\MICROSOFT VISUAL STUDIO 10.0\VC\LIB\MSVCRTD.LIB
C:\PROGRAM FILES (X86)\MICROSOFT VISUAL STUDIO 10.0\VC\LIB\OLDNAMES.LIB
C:\PROGRAM FILES (X86)\MICROSOFT VISUAL STUDIO 10.0\VC\LIB\MSVCRT.LIB
C:\PROGRAM FILES (X86)\MICROSOFT VISUAL STUDIO 10.0\VC\BIN\1033\LINKUI.DLL
C:\PROGRAM FILES (X86)\MICROSOFT VISUAL STUDIO 10.0\VC\BIN\CVTRES.EXE
C:\WINDOWS\SYSTEM32\TZRES.DLL
C:\USERS\JOSEP\DOCUMENTS\VISUAL STUDIO 2010\PROJECTS\CUDARAYTRACER\DEBUG\CUDARAYTRACER.EXE
C:\WINDOWS\SYSTEM32\RSAENH.DLL
C:\USERS\JOSEP\DOCUMENTS\VISUAL STUDIO 2010\PROJECTS\CUDARAYTRACER\DEBUG\CUDARAYTRACER.ILK
C:\USERS\JOSEP\DOCUMENTS\VISUAL STUDIO 2010\PROJECTS\CUDARAYTRACER\DEBUG\CUDARAYTRACER.PDB
C:\PROGRAM FILES (X86)\MICROSOFT VISUAL STUDIO 10.0\VC\BIN\LINK.EXE
